M48
;DRILL file {KiCad 4.0.6} date 08/08/17 00:21:12
;FORMAT={-:-/ absolute / metric / decimal}
FMAT,2
METRIC,TZ
T1C0.700
T2C1.016
T3C1.400
T4C3.400
T5C4.000
%
G90
G05
M71
T1
X48.75Y-137.4
X50.Y-138.7
X55.Y-85.
X58.2Y-82.
X61.Y-90.
X62.Y-92.
X64.Y-87.3
X69.Y-93.1
X71.Y-69.9
X71.2Y-79.5
X73.Y-62.
X73.4Y-70.
X73.4Y-93.1
X75.Y-61.
X75.3Y-131.
X77.Y-85.5
X77.Y-95.5
X77.Y-102.
X79.Y-89.9
X81.2Y-78.7
X82.Y-90.
X86.4Y-63.
X86.4Y-67.1
X87.Y-93.5
X87.5Y-121.8
X87.5Y-141.
X88.Y-85.5
X88.2Y-114.
X88.2Y-120.
X89.5Y-134.5
X90.Y-95.5
X90.Y-102.6
X90.4Y-131.
X92.Y-115.6
X92.5Y-107.
X93.Y-90.
X93.Y-132.
X94.Y-87.
X95.5Y-114.
X96.825Y-79.5
X98.Y-119.
X98.1Y-139.4
X103.3Y-85.
X104.5Y-114.
X105.Y-62.
X107.5Y-61.
X108.Y-64.5
X113.5Y-83.
T2
X53.66Y-99.32
X53.66Y-101.86
X53.66Y-104.4
X53.66Y-106.94
X53.66Y-109.48
X53.66Y-112.02
X53.66Y-114.56
X53.66Y-117.1
X53.66Y-119.64
X53.66Y-122.18
X53.66Y-124.72
X53.66Y-127.26
X53.66Y-129.8
X53.66Y-132.34
X53.66Y-134.88
X53.66Y-137.42
X53.66Y-139.96
X53.66Y-142.5
X53.66Y-145.04
X53.66Y-147.58
X56.2Y-99.32
X56.2Y-101.86
X56.2Y-104.4
X56.2Y-106.94
X56.2Y-109.48
X56.2Y-112.02
X56.2Y-114.56
X56.2Y-117.1
X56.2Y-119.64
X56.2Y-122.18
X56.2Y-124.72
X56.2Y-127.26
X56.2Y-129.8
X56.2Y-132.34
X56.2Y-134.88
X56.2Y-137.42
X56.2Y-139.96
X56.2Y-142.5
X56.2Y-145.04
X56.2Y-147.58
X69.463Y-46.622
X70.847Y-43.778
X72.231Y-46.622
X73.616Y-43.778
X75.Y-46.622
X76.384Y-43.778
X77.769Y-46.622
X79.153Y-43.778
X80.537Y-46.622
X101.463Y-46.622
X102.847Y-43.778
X104.231Y-46.622
X105.616Y-43.778
X107.Y-46.622
X108.384Y-43.778
X109.769Y-46.622
X111.153Y-43.778
X112.537Y-46.622
X124.78Y-99.32
X124.78Y-101.86
X124.78Y-104.4
X124.78Y-106.94
X124.78Y-109.48
X124.78Y-112.02
X124.78Y-114.56
X124.78Y-117.1
X124.78Y-119.64
X124.78Y-122.18
X124.78Y-124.72
X124.78Y-127.26
X124.78Y-129.8
X124.78Y-132.34
X124.78Y-134.88
X124.78Y-137.42
X124.78Y-139.96
X124.78Y-142.5
X124.78Y-145.04
X124.78Y-147.58
X127.32Y-99.32
X127.32Y-101.86
X127.32Y-104.4
X127.32Y-106.94
X127.32Y-109.48
X127.32Y-112.02
X127.32Y-114.56
X127.32Y-117.1
X127.32Y-119.64
X127.32Y-122.18
X127.32Y-124.72
X127.32Y-127.26
X127.32Y-129.8
X127.32Y-132.34
X127.32Y-134.88
X127.32Y-137.42
X127.32Y-139.96
X127.32Y-142.5
X127.32Y-145.04
X127.32Y-147.58
T3
X51.7Y-58.
X51.7Y-63.08
X51.7Y-68.02
X51.7Y-73.1
X51.7Y-78.1
X51.7Y-83.18
X51.7Y-88.26
X52.2Y-154.1
X52.2Y-159.18
X67.Y-100.84
X67.Y-105.92
X67.Y-111.
X67.Y-115.92
X67.Y-121.
X67.Y-126.08
X67.Y-130.84
X67.Y-135.92
X67.Y-141.
X114.Y-100.84
X114.Y-105.92
X114.Y-111.
X114.Y-115.84
X114.Y-120.92
X114.Y-126.
X114.Y-130.84
X114.Y-135.92
X114.Y-141.
X127.2Y-154.1
X127.2Y-159.18
X128.2Y-58.1
X128.2Y-63.18
X128.2Y-68.1
X128.2Y-73.18
X128.2Y-78.1
X128.2Y-83.18
X128.2Y-88.26
T4
X62.503Y-45.2
X87.497Y-45.2
X94.503Y-45.2
X119.497Y-45.2
T5
X51.755Y-40.773
X51.755Y-168.154
X128.082Y-40.646
X128.082Y-168.154
T0
M30
